GPIO,Input torque request,0.0
UART,configuration of filter,0.0
IC3,diagnostic logic,0.0
Set point signal processing,configuration of filter,0.0664257598633092
Duty cycle range diagnostics,Input torque request,0.07068026429155136
Input signal valid,HW connection,0.0
Duty cycle range diagnostics,diagnostic logic,0.30106217008982833
Event,input capture,0.10732330023770258
Force commutation,input capture,0.08235514998559745
OC/UART RX,diagnostic logic,0.0
Event,diagnostic logic,0.06825629547321761
calculate dutycycle and frequency,wrong timer,0.0
Timestamps1,Input torque request,0.0
Input filter OUT,diagnostic logic,0.0
Predriver,Input torque request,0.0
Predriver,HW connection,0.0
amplfied current,Input torque request,0.0
over current,false diagnostic,0.0
Input signal valid,filter value,0.06712906680779113
B6 Motor PWM,configuration of filter,0.0
Gate drive,filter value,0.10505104426251577
Timestamps,HW connection,0.0
Phases,diagnostic logic,0.0
Calculate desired torque or voltage from raw input signal,configuration of filter,0.0
Phases,input capture,0.05440190273168068
OC/UART RX,configuration of filter,0.0
IC3,HW connection,0.0
Motor Duty cycle,diagnostic logic,0.0
Current control,input capture,0.08335031970990958
Input filter IN,input capture,0.42544714251544613
UART,wrong timer,0.0
Phases,configuration of filter,0.0
Set point signal processing,diagnostic logic,0.0
trigger,HW connection,0.0589012799868146
Motor PWM input,configuration of filter,0.05913618292904854
OC/UART RX,Input torque request,0.0
calculate dutycycle and frequency,input capture,0.0
over current,filter value,0.0
ADC driver ,input capture,0.0
Input filter,false diagnostic,0.0
Duty cycle range diagnostics,input capture,0.056908579669841676
Diagnostics ,diagnostic logic,0.6246207471618528
AN0bis,HW connection,0.0
OC/UART RX,HW connection,0.0
B6 Motor PWM,Input torque request,0.0
Gate drive,input capture,0.07085614307763857
Input filter OUT,Input torque request,0.37559197776034897
actual  current,diagnostic logic,0.0
Input filter,configuration of filter,0.4306766329302324
Timestamps,configuration of filter,0.0
desired signal valid,configuration of filter,0.05130635482274831
Torque req/ Serial Rx/ Boot,input capture,0.0
Motor duty cycle < 0,HW connection,0.0
IC/UART RX,false diagnostic,0.0
desired signal valid,Input torque request,0.13297690266686324
CHOP,wrong timer,0.0
Timestamps1,configuration of filter,0.0
Calculate desired torque or voltage from raw input signal,HW connection,0.0
Motor duty cycle < 0,false diagnostic,0.0
Current control,false diagnostic,0.0
Force commutation,wrong timer,0.07249189715687612
Event,wrong timer,0.07559879880245325
U/V/W Phases,input capture,0.0
ADC CH0,wrong timer,0.0
B6 Motor PWM,HW connection,0.0
ADC CH0,filter value,0.0
Gate drive,diagnostic logic,0.0
motor pwm moudule,input capture,0.0
Torque req/ Serial Rx/ Boot,filter value,0.0
Timeout detection,false diagnostic,0.0
Gate,HW connection,0.05656113225813908
Calculate desired torque or voltage from raw input signal,wrong timer,0.0
ADC CH0,HW connection,0.0
Input filter OUT,wrong timer,0.056946119450532115
U/V/W Phases,diagnostic logic,0.0
Force commutation,configuration of filter,0.08552246084165438
interrupt,HW connection,0.0
Current control,wrong timer,0.07499753152567387
Timeout detection,input capture,0.0
GPIO,wrong timer,0.0
Motor control,Input torque request,0.06919517070266963
Input filter OUT,filter value,0.4418497567818407
trigger,wrong timer,0.0
amplfied current,diagnostic logic,0.0
Gate,diagnostic logic,0.0
Timestamps1,filter value,0.0
Predriver,configuration of filter,0.0
Motor control,diagnostic logic,0.0
Motor PWM input,input capture,0.4239816002807495
Phases,false diagnostic,0.0
actual  current,input capture,0.0
Calculate desired torque or voltage from raw input signal,Input torque request,0.36113909563059915
Enable,input capture,0.0
Input signal valid,Input torque request,0.37513851006981974
trigger,configuration of filter,0.0
AN0bis,diagnostic logic,0.0
Frequency range diagnostics,false diagnostic,0.3287953598411854
interrupt,false diagnostic,0.0
Enable,wrong timer,0.0
Gate drive,configuration of filter,0.07969030349438255
motor pwm moudule,filter value,0.0
desired signal valid,filter value,0.06519682710937835
Frequency range diagnostics,input capture,0.05549944780342386
Timestamps1,input capture,0.0
B6 Motor PWM,false diagnostic,0.0
Input filter IN,Input torque request,0.37481202344139136
ADC driver ,configuration of filter,0.0
ADC driver ,wrong timer,0.0
over current,Input torque request,0.0
UART,Input torque request,0.0
Frequency range diagnostics,wrong timer,0.0
trigger,diagnostic logic,0.0
actual  current,false diagnostic,0.0
Timestamps1,diagnostic logic,0.0
U/V/W Phases,configuration of filter,0.0
UART,input capture,0.0
UART,diagnostic logic,0.0
Set point signal processing,input capture,0.11698159986387872
IC3,false diagnostic,0.0
actual  current,HW connection,0.0
Motor duty cycle < 0,input capture,0.0
Input filter IN,diagnostic logic,0.0
Motor control,HW connection,0.05266581798849071
Motor PWM input,Input torque request,0.35890184690029536
CHOP,false diagnostic,0.0
Timestamps,wrong timer,0.0
Current control,HW connection,0.05266581798849071
desired signal valid,HW connection,0.0
Motor duty cycle < 0,Input torque request,0.06057975207912885
Set point signal processing,filter value,0.10011944259277504
Enable,Input torque request,0.0
Enable,HW connection,0.0
Phases,Input torque request,0.0
IC/UART RX,diagnostic logic,0.0
Input filter IN,filter value,0.4418497567818407
IC/UART RX,wrong timer,0.0
Input signal valid,wrong timer,0.06690922922957536
amplfied current,input capture,0.0
Input filter OUT,HW connection,0.0
AN0bis,input capture,0.0
Motor duty cycle < 0,wrong timer,0.050799354037731934
Duty cycle range diagnostics,filter value,0.0693523284531905
IC3,input capture,0.0
motor pwm moudule,Input torque request,0.0
Torque req/ Serial Rx/ Boot,Input torque request,0.19621148503785593
Current control,Input torque request,0.07991353858991065
Timeout detection,filter value,0.0
Frequency range diagnostics,Input torque request,0.0
Timeout detection,wrong timer,0.0
Diagnostics ,Input torque request,0.0
Input filter,filter value,0.5523121959773009
IC/UART RX,input capture,0.0
Motor Duty cycle,input capture,0.06324214423484693
Input signal valid,configuration of filter,0.0
calculate dutycycle and frequency,HW connection,0.0
Timeout detection,Input torque request,0.0
Timeout detection,configuration of filter,0.0
ADC CH0,Input torque request,0.0
CHOP,input capture,0.0
Motor Duty cycle,filter value,0.0776782400113097
over current,wrong timer,0.0
motor pwm moudule,diagnostic logic,0.0
trigger,Input torque request,0.0
Torque req/ Serial Rx/ Boot,HW connection,0.0
Duty cycle range diagnostics,false diagnostic,0.30106217008982833
Timestamps1,wrong timer,0.0
interrupt,Input torque request,0.0
Torque req/ Serial Rx/ Boot,false diagnostic,0.0
calculate dutycycle and frequency,false diagnostic,0.0
GPIO,diagnostic logic,0.0
Gate,input capture,0.0
GPIO,filter value,0.0
Input signal valid,false diagnostic,0.0
Event,false diagnostic,0.0
ADC driver ,false diagnostic,0.0
Calculate desired torque or voltage from raw input signal,false diagnostic,0.0
interrupt,configuration of filter,0.0
U/V/W Phases,HW connection,0.0
Timestamps,diagnostic logic,0.0
Calculate desired torque or voltage from raw input signal,input capture,0.19556621532420448
Motor PWM input,diagnostic logic,0.0
over current,diagnostic logic,0.0
Force commutation,Input torque request,0.12598026459571834
Set point signal processing,Input torque request,0.16127153297089697
over current,configuration of filter,0.0
GPIO,input capture,0.0
AN0bis,filter value,0.0
Event,configuration of filter,0.06109190437728886
Gate,configuration of filter,0.05528785694866615
Motor PWM input,filter value,0.0821365433664665
ADC CH0,input capture,0.0
Gate,false diagnostic,0.0
Duty cycle range diagnostics,wrong timer,0.05255149517360171
trigger,input capture,0.0
calculate dutycycle and frequency,Input torque request,0.0
Duty cycle range diagnostics,configuration of filter,0.06177279443192626
Timestamps1,false diagnostic,0.0
AN0bis,false diagnostic,0.0
OC/UART RX,input capture,0.0
Diagnostics ,filter value,0.0
Motor control,configuration of filter,0.07791711955853639
amplfied current,filter value,0.0
CHOP,diagnostic logic,0.0
Gate drive,HW connection,0.0
Duty cycle range diagnostics,HW connection,0.0
Timeout detection,HW connection,0.057853089445165186
Motor duty cycle < 0,filter value,0.055484457150935494
U/V/W Phases,false diagnostic,0.0
UART,false diagnostic,0.0
Input filter IN,false diagnostic,0.0
interrupt,wrong timer,0.0
Force commutation,diagnostic logic,0.0
Predriver,diagnostic logic,0.0
CHOP,configuration of filter,0.0
Motor PWM input,wrong timer,0.06128030672452951
Force commutation,HW connection,0.0
interrupt,filter value,0.0
IC/UART RX,configuration of filter,0.0
Predriver,input capture,0.0
Input filter,wrong timer,0.07118264931316515
Torque req/ Serial Rx/ Boot,configuration of filter,0.0
Gate,filter value,0.07371714259822153
Motor Duty cycle,configuration of filter,0.06003542722707252
IC3,wrong timer,0.0
Motor control,false diagnostic,0.0
IC3,configuration of filter,0.0
Event,filter value,0.10605799985277403
Motor Duty cycle,Input torque request,0.07964797075060727
Phases,HW connection,0.0
Input signal valid,input capture,0.4280447301641795
Input filter IN,HW connection,0.0
Phases,filter value,0.0790896502920423
Motor duty cycle < 0,configuration of filter,0.0
OC/UART RX,filter value,0.0
Gate drive,false diagnostic,0.0
Phases,wrong timer,0.05192096276988827
ADC CH0,diagnostic logic,0.0
desired signal valid,false diagnostic,0.0
Set point signal processing,false diagnostic,0.0
Frequency range diagnostics,HW connection,0.0
IC3,filter value,0.0
U/V/W Phases,filter value,0.0
ADC CH0,configuration of filter,0.0
ADC driver ,HW connection,0.0
IC/UART RX,filter value,0.0
over current,HW connection,0.0
CHOP,HW connection,0.0
Motor control,input capture,0.07444096431715283
Predriver,wrong timer,0.0
trigger,filter value,0.0
Input filter,input capture,0.5287134811720379
OC/UART RX,false diagnostic,0.0
GPIO,HW connection,0.0
Current control,diagnostic logic,0.0
motor pwm moudule,configuration of filter,0.0
OC/UART RX,wrong timer,0.0
Diagnostics ,wrong timer,0.0
Motor Duty cycle,HW connection,0.0
Timestamps,input capture,0.0
Timestamps1,HW connection,0.0
Motor control,wrong timer,0.09142176292881327
Predriver,filter value,0.0
Enable,diagnostic logic,0.0
Diagnostics ,HW connection,0.0
actual  current,configuration of filter,0.0
calculate dutycycle and frequency,filter value,0.06618033545995321
Motor PWM input,HW connection,0.0
Input filter OUT,input capture,0.42609775627375807
actual  current,filter value,0.0
ADC CH0,false diagnostic,0.0
amplfied current,HW connection,0.0
desired signal valid,diagnostic logic,0.0
U/V/W Phases,wrong timer,0.0
AN0bis,wrong timer,0.0
IC/UART RX,HW connection,0.0
amplfied current,false diagnostic,0.0
actual  current,Input torque request,0.0
Timestamps,filter value,0.0
Force commutation,false diagnostic,0.0
desired signal valid,input capture,0.12308412740004777
Input signal valid,diagnostic logic,0.0
Input filter,Input torque request,0.42904689078211566
Input filter,HW connection,0.0
Input filter OUT,configuration of filter,0.358897194108527
B6 Motor PWM,filter value,0.0
CHOP,Input torque request,0.0
UART,HW connection,0.0
Input filter IN,configuration of filter,0.358897194108527
B6 Motor PWM,wrong timer,0.0
U/V/W Phases,Input torque request,0.0
ADC driver ,filter value,0.0
Timeout detection,diagnostic logic,0.0
Calculate desired torque or voltage from raw input signal,diagnostic logic,0.0
Enable,false diagnostic,0.0
Diagnostics ,input capture,0.0
Frequency range diagnostics,filter value,0.07443965697985226
Diagnostics ,configuration of filter,0.0
Input filter OUT,false diagnostic,0.0
GPIO,false diagnostic,0.0
Force commutation,filter value,0.11207765837270285
CHOP,filter value,0.0
Frequency range diagnostics,configuration of filter,0.06474897920060037
Motor Duty cycle,wrong timer,0.0711190956528247
Set point signal processing,HW connection,0.0880857899788151
Current control,filter value,0.17754833908226067
GPIO,configuration of filter,0.0
Input filter IN,wrong timer,0.056946119450532115
Motor duty cycle < 0,diagnostic logic,0.0
interrupt,input capture,0.0
calculate dutycycle and frequency,configuration of filter,0.0
Motor control,filter value,0.20010634650469783
Current control,configuration of filter,0.06682180258958359
Input filter,diagnostic logic,0.0
Torque req/ Serial Rx/ Boot,wrong timer,0.0
trigger,false diagnostic,0.0
Motor PWM input,false diagnostic,0.0
Predriver,false diagnostic,0.0
amplfied current,wrong timer,0.0
calculate dutycycle and frequency,diagnostic logic,0.0
motor pwm moudule,false diagnostic,0.0
ADC driver ,diagnostic logic,0.0
Motor Duty cycle,false diagnostic,0.0
AN0bis,Input torque request,0.0
Torque req/ Serial Rx/ Boot,diagnostic logic,0.0
Event,HW connection,0.08635724027919935
Timestamps,false diagnostic,0.0
motor pwm moudule,wrong timer,0.0
Gate,wrong timer,0.0
IC3,Input torque request,0.0
Enable,filter value,0.0
Gate drive,Input torque request,0.0647830610533316
actual  current,wrong timer,0.0
Calculate desired torque or voltage from raw input signal,filter value,0.0
IC/UART RX,Input torque request,0.0
Event,Input torque request,0.10801871473343176
Diagnostics ,false diagnostic,0.6246207471618528
B6 Motor PWM,diagnostic logic,0.0
Frequency range diagnostics,diagnostic logic,0.3287953598411854
interrupt,diagnostic logic,0.0
Enable,configuration of filter,0.0
amplfied current,configuration of filter,0.0
over current,input capture,0.0
UART,filter value,0.0
ADC driver ,Input torque request,0.0
motor pwm moudule,HW connection,0.0
B6 Motor PWM,input capture,0.0
AN0bis,configuration of filter,0.0
Set point signal processing,wrong timer,0.06454596824873378
Gate drive,wrong timer,0.07812480769361851
desired signal valid,wrong timer,0.05433210831806161
Gate,Input torque request,0.0
Timestamps,Input torque request,0.0
