ROOT>>Req_3,1148,Req_3,Requirement,CIA_Test_Reqs_Test2 ; 
ROOT>>Req_3>>B0,1139,B0,Block,CIA_Test_Reqs_Test2 ; 
ROOT>>Req_3>>B0>>,1142,,FlowPort,CIA_Test_Reqs_Test2 ; 
ROOT>>Req_3>>B0>>>>B7_B0 IN,1128,B7_B0 IN,FlowPort,B7 ; CIA_Test_Reqs_Test2 ; 
ROOT>>Req_3>>B0>>>>B7_B0 IN>>B7,1121,B7,Block,CIA_Test_Reqs_Test2 ; B7 ; 
ROOT>>Req_3>>B0>>>>B7_B0 IN>>B7(Composite),1122,B7_B5 IN,FlowPort,CIA_Test_Reqs_Test2 ; B7 ; 
ROOT>>Req_3>>B0>>>>B7_B0 IN>>B7(Composite),1127,Activity1,Activity,B7 ; 
ROOT>>Req_3>>B0>>>>B7_B0 IN>>B7(Composite),1129,D1,DecisionNode,B7 ; 
ROOT>>Req_3>>B0>>>>B7_B0 IN>>B7(Composite),1130,Activity2,Activity,B7 ; 
ROOT>>Req_3>>B0>>>>B7_B0 IN>>B7(Composite),1131,Activity3,Activity,B7 ; 
ROOT>>Req_3>>B0>>>>B7_B0 IN>>B7(Composite),1132,ObjectNode1,ActionPin,B7 ; 
ROOT>>Req_3>>B0>>>>B7_B0 IN>>B7(Composite),1133,B7_1 OUT,FlowPort,B7 ; CIA_Test_Reqs_Test2 ; 
ROOT>>Req_3>>B0>>>>B7_B0 IN>>B7(Composite),1134,B7_2 OUT,FlowPort,B7 ; CIA_Test_Reqs_Test2 ; 
ROOT>>Req_3>>B0>>>>B7_B0 IN>>B7(Composite),1135,B7_3 OUT,FlowPort,B7 ; CIA_Test_Reqs_Test2 ; 
ROOT>>Req_3>>B0>>>>B7_B0 IN>>B7>>B7_1 OUT>>B8_B7 IN ,1145,B8_B7 IN ,FlowPort,CIA_Test_Reqs_Test2 ; 
ROOT>>Req_3>>B0>>>>B7_B0 IN>>B7>>B7_1 OUT>>B8_B7 IN >>B8,1136,B8,Block,CIA_Test_Reqs_Test2 ; 
ROOT>>Req_3>>B0>>>>B7_B0 IN>>B7>>B7_1 OUT>>B8_B7 IN >>B8>>B8 _1 OUT,1149,B8 _1 OUT,FlowPort,CIA_Test_Reqs_Test2 ; 
ROOT>>Req_3>>B0>>>>B7_B0 IN>>B7>>B7_1 OUT>>B8_B7 IN >>B8>>B8 _1 OUT>>B12_B8 IN,1150,B12_B8 IN,FlowPort,CIA_Test_Reqs_Test2 ; 
ROOT>>Req_3>>B0>>>>B7_B0 IN>>B7>>B7_1 OUT>>B8_B7 IN >>B8>>B8 _1 OUT>>B12_B8 IN>>B12,1141,B12,Block,CIA_Test_Reqs_Test2 ; 
ROOT>>Req_3>>B0>>>>B7_B0 IN>>B7>>B7_2 OUT>>B9_B7 IN,1144,B9_B7 IN,FlowPort,CIA_Test_Reqs_Test2 ; 
ROOT>>Req_3>>B0>>>>B7_B0 IN>>B7>>B7_2 OUT>>B9_B7 IN>>B9,1137,B9,Block,CIA_Test_Reqs_Test2 ; 
ROOT>>Req_3>>B0>>>>B7_B0 IN>>B7>>B7_2 OUT>>B9_B7 IN>>B9>>,1147,,FlowPort,
ROOT>>Req_3>>B0>>>>B7_B0 IN>>B7>>B7_3 OUT>>B10_B7 IN,1143,B10_B7 IN,FlowPort,CIA_Test_Reqs_Test2 ; 
ROOT>>Req_3>>B0>>>>B7_B0 IN>>B7>>B7_3 OUT>>B10_B7 IN>>B10,1138,B10,Block,CIA_Test_Reqs_Test2 ; 
ROOT>>Req_3>>B0>>>>B7_B0 IN>>B7>>B7_3 OUT>>B10_B7 IN>>B10>>B10_1 OUT,1146,B10_1 OUT,FlowPort,CIA_Test_Reqs_Test2 ; 
ROOT>>Req_3>>B0>>>>B7_B0 IN>>B7>>B7_3 OUT>>B10_B7 IN>>B10>>B10_1 OUT>>B11_B10 IN,1151,B11_B10 IN,FlowPort,CIA_Test_Reqs_Test2 ; 
ROOT>>Req_3>>B0>>>>B7_B0 IN>>B7>>B7_3 OUT>>B10_B7 IN>>B10>>B10_1 OUT>>B11_B10 IN>>B11,1140,B11,Block,CIA_Test_Reqs_Test2 ; 
